%YAML 1.1
%TAG !u! tag:unity3d.com,2011:
--- !u!1 &3107475598018633247
GameObject:
  m_ObjectHideFlags: 0
  m_CorrespondingSourceObject: {fileID: 0}
  m_PrefabInstance: {fileID: 0}
  m_PrefabAsset: {fileID: 0}
  serializedVersion: 6
  m_Component:
  - component: {fileID: 3107475598018633241}
  - component: {fileID: 3107475598018633246}
  m_Layer: 0
  m_Name: ProjectileShooter
  m_TagString: Untagged
  m_Icon: {fileID: 0}
  m_NavMeshLayer: 0
  m_StaticEditorFlags: 0
  m_IsActive: 1
--- !u!4 &3107475598018633241
Transform:
  m_ObjectHideFlags: 0
  m_CorrespondingSourceObject: {fileID: 0}
  m_PrefabInstance: {fileID: 0}
  m_PrefabAsset: {fileID: 0}
  m_GameObject: {fileID: 3107475598018633247}
  m_LocalRotation: {x: 0, y: 0, z: 0, w: 1}
  m_LocalPosition: {x: 0, y: 0, z: 0}
  m_LocalScale: {x: 1, y: 1, z: 1}
  m_ConstrainProportionsScale: 0
  m_Children: []
  m_Father: {fileID: 0}
  m_RootOrder: 0
  m_LocalEulerAnglesHint: {x: 0, y: 0, z: 0}
--- !u!114 &3107475598018633246
MonoBehaviour:
  m_ObjectHideFlags: 0
  m_CorrespondingSourceObject: {fileID: 0}
  m_PrefabInstance: {fileID: 0}
  m_PrefabAsset: {fileID: 0}
  m_GameObject: {fileID: 3107475598018633247}
  m_Enabled: 1
  m_EditorHideFlags: 0
  m_Script: {fileID: 11500000, guid: 2f579213b6bf5054fa2ced2fca7043a0, type: 3}
  m_Name: 
  m_EditorClassIdentifier: 
  <Damage>k__BackingField: 10
  <Cooldown>k__BackingField: 0.8
  cooldownTimer: 0
  EnergyCost: 10
  ProjectilePrefab: {fileID: 3347847166787271921, guid: 35b860f3135415c4c93ddd1b27aec995, type: 3}
  <ProjectileSpeed>k__BackingField: 5
  <ProjectileDuration>k__BackingField: 2
  aimDirection: {x: 0, y: 0}
