%YAML 1.1
%TAG !u! tag:unity3d.com,2011:
--- !u!1001 &9189633779832238529
PrefabInstance:
  m_ObjectHideFlags: 0
  serializedVersion: 2
  m_Modification:
    m_TransformParent: {fileID: 0}
    m_Modifications:
    - target: {fileID: 3944929942220335076, guid: d6e0eb8d9a44a84428dff30cff650bf7, type: 3}
      propertyPath: m_Name
      value: MilkBar
      objectReference: {fileID: 0}
    - target: {fileID: 6329269838218455749, guid: d6e0eb8d9a44a84428dff30cff650bf7, type: 3}
      propertyPath: m_Pivot.x
      value: 0.5
      objectReference: {fileID: 0}
    - target: {fileID: 6329269838218455749, guid: d6e0eb8d9a44a84428dff30cff650bf7, type: 3}
      propertyPath: m_Pivot.y
      value: 0.5
      objectReference: {fileID: 0}
    - target: {fileID: 6329269838218455749, guid: d6e0eb8d9a44a84428dff30cff650bf7, type: 3}
      propertyPath: m_RootOrder
      value: 0
      objectReference: {fileID: 0}
    - target: {fileID: 6329269838218455749, guid: d6e0eb8d9a44a84428dff30cff650bf7, type: 3}
      propertyPath: m_AnchorMax.x
      value: 0
      objectReference: {fileID: 0}
    - target: {fileID: 6329269838218455749, guid: d6e0eb8d9a44a84428dff30cff650bf7, type: 3}
      propertyPath: m_AnchorMax.y
      value: 1
      objectReference: {fileID: 0}
    - target: {fileID: 6329269838218455749, guid: d6e0eb8d9a44a84428dff30cff650bf7, type: 3}
      propertyPath: m_AnchorMin.x
      value: 0
      objectReference: {fileID: 0}
    - target: {fileID: 6329269838218455749, guid: d6e0eb8d9a44a84428dff30cff650bf7, type: 3}
      propertyPath: m_AnchorMin.y
      value: 1
      objectReference: {fileID: 0}
    - target: {fileID: 6329269838218455749, guid: d6e0eb8d9a44a84428dff30cff650bf7, type: 3}
      propertyPath: m_SizeDelta.x
      value: 200
      objectReference: {fileID: 0}
    - target: {fileID: 6329269838218455749, guid: d6e0eb8d9a44a84428dff30cff650bf7, type: 3}
      propertyPath: m_SizeDelta.y
      value: 50
      objectReference: {fileID: 0}
    - target: {fileID: 6329269838218455749, guid: d6e0eb8d9a44a84428dff30cff650bf7, type: 3}
      propertyPath: m_LocalPosition.x
      value: 0
      objectReference: {fileID: 0}
    - target: {fileID: 6329269838218455749, guid: d6e0eb8d9a44a84428dff30cff650bf7, type: 3}
      propertyPath: m_LocalPosition.y
      value: 0
      objectReference: {fileID: 0}
    - target: {fileID: 6329269838218455749, guid: d6e0eb8d9a44a84428dff30cff650bf7, type: 3}
      propertyPath: m_LocalPosition.z
      value: 0
      objectReference: {fileID: 0}
    - target: {fileID: 6329269838218455749, guid: d6e0eb8d9a44a84428dff30cff650bf7, type: 3}
      propertyPath: m_LocalRotation.w
      value: 1
      objectReference: {fileID: 0}
    - target: {fileID: 6329269838218455749, guid: d6e0eb8d9a44a84428dff30cff650bf7, type: 3}
      propertyPath: m_LocalRotation.x
      value: 0
      objectReference: {fileID: 0}
    - target: {fileID: 6329269838218455749, guid: d6e0eb8d9a44a84428dff30cff650bf7, type: 3}
      propertyPath: m_LocalRotation.y
      value: 0
      objectReference: {fileID: 0}
    - target: {fileID: 6329269838218455749, guid: d6e0eb8d9a44a84428dff30cff650bf7, type: 3}
      propertyPath: m_LocalRotation.z
      value: 0
      objectReference: {fileID: 0}
    - target: {fileID: 6329269838218455749, guid: d6e0eb8d9a44a84428dff30cff650bf7, type: 3}
      propertyPath: m_AnchoredPosition.x
      value: 125
      objectReference: {fileID: 0}
    - target: {fileID: 6329269838218455749, guid: d6e0eb8d9a44a84428dff30cff650bf7, type: 3}
      propertyPath: m_AnchoredPosition.y
      value: -50
      objectReference: {fileID: 0}
    - target: {fileID: 6329269838218455749, guid: d6e0eb8d9a44a84428dff30cff650bf7, type: 3}
      propertyPath: m_LocalEulerAnglesHint.x
      value: 0
      objectReference: {fileID: 0}
    - target: {fileID: 6329269838218455749, guid: d6e0eb8d9a44a84428dff30cff650bf7, type: 3}
      propertyPath: m_LocalEulerAnglesHint.y
      value: 0
      objectReference: {fileID: 0}
    - target: {fileID: 6329269838218455749, guid: d6e0eb8d9a44a84428dff30cff650bf7, type: 3}
      propertyPath: m_LocalEulerAnglesHint.z
      value: 0
      objectReference: {fileID: 0}
    - target: {fileID: 8980328346970939440, guid: d6e0eb8d9a44a84428dff30cff650bf7, type: 3}
      propertyPath: m_AnchorMax.x
      value: 0
      objectReference: {fileID: 0}
    - target: {fileID: 8980328346970939440, guid: d6e0eb8d9a44a84428dff30cff650bf7, type: 3}
      propertyPath: m_AnchorMax.y
      value: 0
      objectReference: {fileID: 0}
    - target: {fileID: 8980328346970939443, guid: d6e0eb8d9a44a84428dff30cff650bf7, type: 3}
      propertyPath: m_Color.b
      value: 1
      objectReference: {fileID: 0}
    - target: {fileID: 8980328346970939443, guid: d6e0eb8d9a44a84428dff30cff650bf7, type: 3}
      propertyPath: m_Color.g
      value: 1
      objectReference: {fileID: 0}
    - target: {fileID: 8980328346970939443, guid: d6e0eb8d9a44a84428dff30cff650bf7, type: 3}
      propertyPath: m_Color.r
      value: 1
      objectReference: {fileID: 0}
    - target: {fileID: 8980328347477954757, guid: d6e0eb8d9a44a84428dff30cff650bf7, type: 3}
      propertyPath: m_Color.b
      value: 0.9528302
      objectReference: {fileID: 0}
    - target: {fileID: 8980328347477954757, guid: d6e0eb8d9a44a84428dff30cff650bf7, type: 3}
      propertyPath: m_Color.g
      value: 0.9483357
      objectReference: {fileID: 0}
    - target: {fileID: 8980328347477954757, guid: d6e0eb8d9a44a84428dff30cff650bf7, type: 3}
      propertyPath: m_Color.r
      value: 0.86743504
      objectReference: {fileID: 0}
    - target: {fileID: 8980328347890624391, guid: d6e0eb8d9a44a84428dff30cff650bf7, type: 3}
      propertyPath: m_TargetGraphic
      value: 
      objectReference: {fileID: 0}
    m_RemovedComponents: []
  m_SourcePrefab: {fileID: 100100000, guid: d6e0eb8d9a44a84428dff30cff650bf7, type: 3}
--- !u!1 &5275711715622573605 stripped
GameObject:
  m_CorrespondingSourceObject: {fileID: 3944929942220335076, guid: d6e0eb8d9a44a84428dff30cff650bf7, type: 3}
  m_PrefabInstance: {fileID: 9189633779832238529}
  m_PrefabAsset: {fileID: 0}
--- !u!114 &4117027511134339713
MonoBehaviour:
  m_ObjectHideFlags: 0
  m_CorrespondingSourceObject: {fileID: 0}
  m_PrefabInstance: {fileID: 0}
  m_PrefabAsset: {fileID: 0}
  m_GameObject: {fileID: 5275711715622573605}
  m_Enabled: 1
  m_EditorHideFlags: 0
  m_Script: {fileID: 11500000, guid: 979d8e9cd8a97834f8123252c9684fb5, type: 3}
  m_Name: 
  m_EditorClassIdentifier: 
  MilkBar: {fileID: 8846728213752235648}
--- !u!114 &8846728213752235648 stripped
MonoBehaviour:
  m_CorrespondingSourceObject: {fileID: 382180672023066433, guid: d6e0eb8d9a44a84428dff30cff650bf7, type: 3}
  m_PrefabInstance: {fileID: 9189633779832238529}
  m_PrefabAsset: {fileID: 0}
  m_GameObject: {fileID: 5275711715622573605}
  m_Enabled: 1
  m_EditorHideFlags: 0
  m_Script: {fileID: 11500000, guid: 89ab070aab9d5234dbcfadaaa2dab618, type: 3}
  m_Name: 
  m_EditorClassIdentifier: 
