%YAML 1.1
%TAG !u! tag:unity3d.com,2011:
--- !u!114 &11400000
MonoBehaviour:
  m_ObjectHideFlags: 0
  m_CorrespondingSourceObject: {fileID: 0}
  m_PrefabInstance: {fileID: 0}
  m_PrefabAsset: {fileID: 0}
  m_GameObject: {fileID: 0}
  m_Enabled: 1
  m_EditorHideFlags: 0
  m_Script: {fileID: 11500000, guid: 9d4d15f7e73a86d4d8fc382f33398327, type: 3}
  m_Name: Room 8
  m_EditorClassIdentifier: 
  RoomSize: {x: 4, y: 4}
  RealRoomSize: {x: 6, y: 6}
  prevSize: {x: 6, y: 6}
  RoomTiles: 020000000200000002000000020000000200000002000000020000000100000001000000010000000100000002000000020000000100000001000000010000000100000002000000020000000100000001000000020000000200000002000000020000000100000001000000020000000000000000000000020000000200000002000000020000000000000000000000
  DoorPositions:
  - {x: 5, y: 2}
  - {x: 2, y: 5}
  PropList: {fileID: 11400000, guid: aae90bb3de28b4f46b4c005e2936d541, type: 2}
  PropPositions:
  - {x: 4, y: 2}
  - {x: 2, y: 4}
  EnemyPositions:
  - {x: 2, y: 1}
  - {x: 1, y: 1}
